ALU/RESTA8/simulation/qsim/RESTA8.msim.vcd
$comment
	File created using the following command:
		vcd file RESTA8.msim.vcd -direction
$end
$date
	Thu May 16 17:58:30 2024
$end
$version
	ModelSim Version 10.5b
$end
$timescale
	1ps
$end

$scope module resta8_vhd_vec_tst $end
$var wire 1 ! A [7] $end
$var wire 1 " A [6] $end
$var wire 1 # A [5] $end
$var wire 1 $ A [4] $end
$var wire 1 % A [3] $end
$var wire 1 & A [2] $end
$var wire 1 ' A [1] $end
$var wire 1 ( A [0] $end
$var wire 1 ) B [7] $end
$var wire 1 * B [6] $end
$var wire 1 + B [5] $end
$var wire 1 , B [4] $end
$var wire 1 - B [3] $end
$var wire 1 . B [2] $end
$var wire 1 / B [1] $end
$var wire 1 0 B [0] $end
$var wire 1 1 Bin $end
$var wire 1 2 Bout $end
$var wire 1 3 Diff [7] $end
$var wire 1 4 Diff [6] $end
$var wire 1 5 Diff [5] $end
$var wire 1 6 Diff [4] $end
$var wire 1 7 Diff [3] $end
$var wire 1 8 Diff [2] $end
$var wire 1 9 Diff [1] $end
$var wire 1 : Diff [0] $end
$var wire 1 ; OverFlow $end

$scope module i1 $end
$var wire 1 < gnd $end
$var wire 1 = vcc $end
$var wire 1 > unknown $end
$var wire 1 ? devoe $end
$var wire 1 @ devclrn $end
$var wire 1 A devpor $end
$var wire 1 B ww_devoe $end
$var wire 1 C ww_devclrn $end
$var wire 1 D ww_devpor $end
$var wire 1 E ww_A [7] $end
$var wire 1 F ww_A [6] $end
$var wire 1 G ww_A [5] $end
$var wire 1 H ww_A [4] $end
$var wire 1 I ww_A [3] $end
$var wire 1 J ww_A [2] $end
$var wire 1 K ww_A [1] $end
$var wire 1 L ww_A [0] $end
$var wire 1 M ww_B [7] $end
$var wire 1 N ww_B [6] $end
$var wire 1 O ww_B [5] $end
$var wire 1 P ww_B [4] $end
$var wire 1 Q ww_B [3] $end
$var wire 1 R ww_B [2] $end
$var wire 1 S ww_B [1] $end
$var wire 1 T ww_B [0] $end
$var wire 1 U ww_Bin $end
$var wire 1 V ww_Diff [7] $end
$var wire 1 W ww_Diff [6] $end
$var wire 1 X ww_Diff [5] $end
$var wire 1 Y ww_Diff [4] $end
$var wire 1 Z ww_Diff [3] $end
$var wire 1 [ ww_Diff [2] $end
$var wire 1 \ ww_Diff [1] $end
$var wire 1 ] ww_Diff [0] $end
$var wire 1 ^ ww_Bout $end
$var wire 1 _ ww_OverFlow $end
$var wire 1 ` \Diff[0]~output_o\ $end
$var wire 1 a \Diff[1]~output_o\ $end
$var wire 1 b \Diff[2]~output_o\ $end
$var wire 1 c \Diff[3]~output_o\ $end
$var wire 1 d \Diff[4]~output_o\ $end
$var wire 1 e \Diff[5]~output_o\ $end
$var wire 1 f \Diff[6]~output_o\ $end
$var wire 1 g \Diff[7]~output_o\ $end
$var wire 1 h \Bout~output_o\ $end
$var wire 1 i \OverFlow~output_o\ $end
$var wire 1 j \Bin~input_o\ $end
$var wire 1 k \A[0]~input_o\ $end
$var wire 1 l \B[0]~input_o\ $end
$var wire 1 m \FS0|HS1|Diff~combout\ $end
$var wire 1 n \FS0|Bout~combout\ $end
$var wire 1 o \A[1]~input_o\ $end
$var wire 1 p \B[1]~input_o\ $end
$var wire 1 q \FS1|HS1|Diff~combout\ $end
$var wire 1 r \FS1|Bout~combout\ $end
$var wire 1 s \A[2]~input_o\ $end
$var wire 1 t \B[2]~input_o\ $end
$var wire 1 u \FS2|HS1|Diff~combout\ $end
$var wire 1 v \FS2|Bout~combout\ $end
$var wire 1 w \A[3]~input_o\ $end
$var wire 1 x \B[3]~input_o\ $end
$var wire 1 y \FS3|HS1|Diff~combout\ $end
$var wire 1 z \FS3|Bout~combout\ $end
$var wire 1 { \A[4]~input_o\ $end
$var wire 1 | \B[4]~input_o\ $end
$var wire 1 } \FS4|HS1|Diff~combout\ $end
$var wire 1 ~ \FS4|Bout~combout\ $end
$var wire 1 !! \A[5]~input_o\ $end
$var wire 1 "! \B[5]~input_o\ $end
$var wire 1 #! \FS5|HS1|Diff~combout\ $end
$var wire 1 $! \FS5|Bout~combout\ $end
$var wire 1 %! \A[6]~input_o\ $end
$var wire 1 &! \B[6]~input_o\ $end
$var wire 1 '! \FS6|HS1|Diff~combout\ $end
$var wire 1 (! \FS6|Bout~combout\ $end
$var wire 1 )! \A[7]~input_o\ $end
$var wire 1 *! \B[7]~input_o\ $end
$var wire 1 +! \FS7|HS1|Diff~combout\ $end
$var wire 1 ,! \FS7|Bout~combout\ $end
$var wire 1 -! \OverFlow~0_combout\ $end
$upscope $end
$upscope $end
$enddefinitions $end
#0
$dumpvars
01
02
0;
0<
1=
x>
1?
1@
1A
1B
1C
1D
0U
0^
0_
0`
1a
1b
0c
0d
1e
0f
1g
0h
0i
0j
0k
0l
0m
0n
1o
0p
1q
0r
1s
0t
1u
0v
0w
0x
0y
0z
0{
0|
0}
0~
1!!
0"!
1#!
0$!
0%!
0&!
0'!
0(!
1)!
0*!
1+!
0,!
0-!
1!
0"
1#
0$
0%
1&
1'
0(
0)
0*
0+
0,
0-
0.
0/
00
1E
0F
1G
0H
0I
1J
1K
0L
0M
0N
0O
0P
0Q
0R
0S
0T
1V
0W
1X
0Y
0Z
1[
1\
0]
13
04
15
06
07
18
19
0:
$end
#5000
0!
1$
1%
1(
1L
1I
1H
0E
0)!
1{
1w
1k
1m
1y
1}
0+!
0g
1d
1c
1`
0V
1Y
1Z
1]
1:
17
16
03
#10000
0%
0(
1"
0#
10
0L
0I
0G
1F
1T
1l
1%!
0!!
0w
0k
0y
0#!
1'!
1n
1f
0e
0c
0q
1W
0X
0Z
0a
07
05
14
0\
09
#15000
1(
1#
0'
1L
0K
1G
1!!
0o
1k
0m
0n
1q
1r
1#!
1e
1a
0`
0u
0q
0r
1X
1\
0]
0a
0b
1u
0:
19
15
0\
0[
1b
09
08
1[
18
#20000
1'
00
1!
1/
1K
1E
0T
1S
1p
0l
1)!
1o
1+!
1m
1`
1g
1]
1V
1:
13
#25000
0'
0#
0$
0&
0K
0J
0H
0G
0!!
0{
0s
0o
1q
1r
0u
0}
0#!
0e
0d
0b
1a
1u
1v
0X
0Y
0[
1\
1b
1y
1z
19
08
06
05
1[
1c
1}
1~
18
1Z
1d
1#!
1$!
17
1Y
1e
0'!
16
1X
0f
15
0W
04
#30000
1'
1#
1&
10
0!
1%
0"
1K
1J
1I
1G
0F
0E
1T
1l
0)!
0%!
1!!
1w
1s
1o
0q
0r
0u
0v
0y
0z
0#!
0$!
1'!
1(!
0+!
0m
0`
0g
1f
0e
0c
0b
0a
1+!
1,!
0'!
0(!
0}
0~
1y
1u
0]
0V
1W
0X
0Z
0[
0\
1b
1c
0d
0f
1h
1g
1#!
0+!
0,!
0:
09
08
07
05
14
03
1[
1Z
0Y
0W
1^
1V
0h
0g
1e
18
17
06
04
13
12
0^
0V
1X
02
15
03
#35000
0'
0#
0&
1"
1$
0(
0L
0K
0J
1H
0G
1F
1%!
0!!
1{
0s
0o
0k
1m
1n
1q
1r
0u
1}
0#!
1'!
1f
0e
1d
0b
1a
1`
1u
1v
0q
1W
0X
1Y
0[
1\
1]
0a
1b
0y
1:
19
08
16
05
14
0\
1[
0c
09
18
0Z
07
#40000
1'
1&
0"
0$
1(
00
1!
0/
1.
1L
1K
1J
0H
0F
1E
0T
0S
1R
1t
0p
0l
1)!
0%!
0{
1s
1o
1k
0}
0'!
1+!
0n
0r
1g
0f
0d
0u
0v
1q
1V
0W
0Y
1a
0b
1y
06
04
13
1\
0[
1c
19
08
1Z
17
#45000
1$
0(
0!
1#
0%
0L
0I
1H
1G
0E
0)!
1!!
1{
0w
0k
0m
0y
1}
1#!
0+!
0g
1e
1d
0c
0`
0V
1X
1Y
0Z
0]
0:
07
16
15
03
#50000
1%
0'
0&
10
0K
0J
1I
1T
1l
1w
0s
0o
0q
1u
1v
1y
1m
1n
1`
1c
1b
0a
1q
1r
0y
1]
1Z
1[
0\
0c
1a
0u
1:
09
18
17
0Z
1\
0b
19
07
0[
08
#55000
1&
0$
1(
1!
1L
1J
0H
1E
1)!
0{
1s
1k
0m
0n
1u
0}
1+!
1g
0d
1b
0`
0q
0r
1V
0Y
1[
0]
0a
0u
0v
0:
18
06
13
0\
0b
1y
09
0[
1c
08
1Z
17
#60000
0&
0(
0!
00
1/
0L
0J
0E
0T
1S
1p
0l
0)!
0s
0k
1u
1v
0+!
1q
1r
1a
0g
1b
0u
0y
1\
0V
1[
0c
0b
19
18
03
0Z
0[
08
07
#65000
1&
1!
0%
0#
1J
0I
0G
1E
1)!
0!!
0w
1s
1u
1y
1z
0#!
1+!
1g
0e
1c
1b
1}
1~
1V
0X
1Z
1[
1d
1#!
1$!
18
17
05
13
1Y
1e
1'!
1(!
16
1X
1f
0+!
1-!
15
1W
1i
0g
14
1_
0V
1;
03
#70000
0&
0!
1%
1#
1(
10
1$
1'
1"
1L
1K
0J
1I
1H
1G
1F
0E
1T
1l
0)!
1%!
1!!
1{
1w
0s
1o
1k
0q
0r
0u
0y
0z
0}
0~
0#!
0$!
0'!
0(!
1+!
1,!
0-!
0i
1h
1g
0f
0e
0d
0c
0b
0a
0+!
0,!
1'!
1#!
1}
1u
0_
1^
1V
0W
0X
0Y
0Z
0[
0\
1b
1d
1e
1f
0h
0g
0;
12
09
08
07
06
05
04
13
1[
1Y
1X
1W
0^
0V
18
16
15
14
03
02
#75000
1&
1!
0%
0#
0(
0$
0L
1J
0I
0H
0G
1E
1)!
0!!
0{
0w
1s
0k
1m
1n
0u
0v
1y
1z
0}
0#!
1+!
1g
0e
0d
1c
0b
1`
1}
1~
0y
0z
1q
1r
1V
0X
0Y
1Z
0[
1]
1a
0c
1d
1u
1v
0}
0~
1#!
1$!
1:
08
17
06
05
13
1\
0Z
1Y
1e
0d
1b
0'!
0#!
0$!
1y
1z
19
07
16
1X
0Y
1[
1c
0e
0f
1}
1~
1'!
18
06
15
1Z
0X
0W
1f
1d
1#!
1$!
17
05
04
1W
1Y
1e
0'!
16
14
1X
0f
15
0W
04
#80000
0&
0!
1(
00
0/
0.
1-
1L
0J
0E
0T
0S
0R
1Q
1x
0t
0p
0l
0)!
0s
1k
0+!
0n
0q
0r
0y
0c
0a
0g
0u
0v
1q
0Z
0\
0V
1a
0b
1y
09
07
03
1\
0[
1c
19
08
1Z
17
#85000
0(
1#
1$
0'
0L
0K
1H
1G
1!!
1{
0o
0k
0m
0q
0}
0~
0#!
0$!
0e
0d
0a
0`
1'!
1#!
0X
0Y
0\
0]
1e
1f
0:
09
06
05
1X
1W
15
14
#90000
0#
1!
10
0"
0G
0F
1E
1T
1l
1)!
0%!
0!!
0#!
0'!
1+!
1m
1n
1`
1g
0f
0e
1q
1r
1]
1V
0W
0X
1a
1u
1v
1:
05
04
13
1\
1b
0y
19
1[
0c
18
0Z
07
#95000
0!
1"
1&
1J
1F
0E
0)!
1%!
1s
0u
0v
1'!
0+!
0g
1f
0b
1y
0V
1W
0[
1c
08
14
03
1Z
17
#100000
0&
1#
00
1(
0$
1/
1L
0J
0H
1G
0T
1S
1p
0l
1!!
0{
0s
1k
1u
1v
1}
1~
1#!
0n
0q
0a
1e
1d
1b
1q
0#!
0y
0\
1X
1Y
1[
0c
0e
1a
09
18
16
15
0Z
0X
1\
19
07
05
#105000
1&
0#
1$
1!
1%
1J
1I
1H
0G
1E
1)!
0!!
1{
1w
1s
0u
0v
1y
0}
0~
1#!
1$!
1+!
1g
1e
0d
1c
0b
0'!
0#!
0$!
0y
0z
1V
1X
0Y
1Z
0[
0c
0e
0f
1}
1'!
08
17
06
15
13
0Z
0X
0W
1f
1d
07
05
04
1W
1Y
16
14
#110000
0$
10
0H
1T
1l
0{
0}
0m
0`
0d
0]
0Y
0:
06
#115000
1$
0&
0%
0(
1'
0L
1K
0J
0I
1H
1{
0w
0s
1o
0k
1m
1n
0q
0r
1u
1v
1y
1z
1}
1d
1c
1b
0a
1`
0}
0y
0u
0v
1q
1r
1Y
1Z
1[
0\
1]
1a
0b
0c
0d
1u
1v
1y
1:
09
18
17
16
1\
0[
0Z
0Y
1c
1b
0y
19
08
07
06
1Z
1[
0c
18
17
0Z
07
#120000
1&
0'
00
0/
0"
1.
0K
1J
0F
0T
0S
1R
1t
0p
0l
0%!
1s
0o
0'!
0m
0n
0`
0f
0q
0r
0]
0W
0a
0u
0v
0:
04
0\
0b
1y
09
0[
1c
08
1Z
17
#125000
1"
0!
1F
0E
0)!
1%!
1'!
0+!
0g
1f
0V
1W
14
03
#130000
0"
0&
1'
10
1#
1K
0J
1G
0F
1T
1l
0%!
1!!
0s
1o
1q
1u
1v
1#!
0'!
1m
1n
1`
0f
1e
1b
1a
0q
0y
1]
0W
1X
1[
1\
0c
0a
1:
19
18
15
04
0Z
0\
09
07
#135000
1&
1!
1(
1L
1J
1E
1)!
1s
1k
0m
0n
0u
0v
1+!
1g
0b
0`
1y
1q
1V
0[
0]
1a
1c
0:
08
13
1\
1Z
19
17
#140000
0(
0'
00
1/
0$
1%
0L
0K
1I
0H
0T
1S
1p
0l
0{
1w
0o
0k
0y
0z
1}
1~
1r
1d
0c
1u
1v
0#!
0}
0~
1Y
0Z
0d
0e
1b
1#!
1y
1z
07
16
0Y
0X
1[
1c
1e
1}
1~
18
06
05
1Z
1X
1d
0#!
17
15
1Y
0e
16
0X
05
#145000
1(
0%
0!
1L
0I
0E
0)!
0w
1k
1m
0y
0+!
0g
0c
1`
0V
0Z
1]
1:
07
03
#150000
1%
10
0&
0J
1I
1T
1l
1w
0s
0u
1y
0m
0`
1c
0b
0]
1Z
0[
0:
08
17
#155000
1!
1E
1)!
1+!
1g
1V
13
#160000
00
0/
0.
0-
1,
0T
0S
0R
0Q
1P
1|
0x
0t
0p
0l
1m
0q
0r
1u
0y
0z
0}
0d
0c
1b
0a
1`
1}
0u
0v
0Y
0Z
1[
0\
1]
0b
1d
1y
1:
09
18
07
06
0[
1Y
1c
08
16
1Z
17
#165000
0!
1'
1$
1"
0#
1K
1H
0G
1F
0E
0)!
1%!
0!!
1{
1o
1q
0}
0~
1#!
1$!
1'!
0+!
0g
1f
1e
0d
1a
0'!
0#!
0$!
0V
1W
1X
0Y
1\
0e
0f
1'!
19
06
15
14
03
0X
0W
1f
05
04
1W
14
#170000
1#
10
0%
0(
0L
0I
1G
1T
1l
1!!
0w
0k
0y
1#!
1n
1e
0c
0q
1X
0Z
0a
07
15
0\
09
#175000
0#
1%
1(
0'
1&
1L
0K
1J
1I
0G
0!!
1w
1s
0o
1k
0m
0n
1q
1r
1u
1y
0#!
0e
1c
1b
1a
0`
0u
0q
0r
0X
1Z
1[
1\
0]
0a
0b
1u
0:
19
18
17
05
0\
0[
1b
09
08
1[
18
#180000
0%
0(
00
0$
0"
1/
0L
0I
0H
0F
0T
1S
1p
0l
0%!
0{
0w
0k
0y
1}
1~
0'!
1q
1r
1a
0f
1d
0c
0u
1#!
1$!
1\
0W
1Y
0Z
1e
0b
1'!
1(!
19
07
16
04
1X
0[
1f
1+!
1,!
08
15
1W
1h
1g
14
1^
1V
12
13
#185000
1%
1(
1$
1'
1!
1L
1K
1I
1H
1E
1)!
1{
1w
1o
1k
1m
0q
0r
1y
0}
0~
0+!
0,!
1-!
1i
0h
0g
0d
1c
0a
1`
0#!
0$!
1u
1_
0^
0V
0Y
1Z
0\
1]
1b
0e
0'!
0(!
1;
02
1:
09
17
06
03
1[
0X
0f
1+!
0-!
18
05
0W
0i
1g
04
0_
1V
0;
13
#190000
0$
0!
10
1#
0&
0J
0H
1G
0E
1T
1l
0)!
1!!
0{
0s
0u
1}
1~
1#!
0+!
0m
0`
0g
1e
1d
0b
0#!
0]
0V
1X
1Y
0[
0e
0:
08
16
15
03
0X
05
#195000
1!
0(
0'
0L
0K
1E
1)!
0o
0k
1m
1n
1q
1r
1+!
1g
1a
1`
1u
1v
0q
1V
1\
1]
0a
1b
0y
1:
19
13
0\
1[
0c
09
18
0Z
07
#200000
0!
1'
00
0#
1&
0%
0/
1.
1K
1J
0I
0G
0E
0T
0S
1R
1t
0p
0l
0)!
0!!
0w
1s
1o
1y
1z
1#!
1$!
0+!
0m
0n
0r
0`
0g
1e
1c
0u
0v
1q
1'!
1(!
0}
0]
0V
1X
1Z
0d
1f
1a
0b
1+!
1,!
0y
0z
0:
17
15
03
0Y
1W
1\
0[
0c
1h
1g
1}
19
08
06
14
0Z
1^
1V
1d
07
13
12
1Y
16
#205000
1!
1(
1"
1L
1F
1E
1)!
1%!
1k
1m
0'!
0(!
0+!
0,!
1-!
1i
0h
0g
0f
1`
1+!
0-!
1_
0^
0V
0W
1]
0i
1g
1;
02
1:
04
03
0_
1V
0;
13
#210000
0!
0(
0"
10
0&
1%
1$
0L
0J
1I
1H
0F
0E
1T
1l
0)!
0%!
1{
1w
0s
0k
1u
1v
1y
0}
0~
1'!
1(!
0+!
1n
0g
1f
0d
1c
1b
0q
1+!
1,!
0#!
0$!
0y
0V
1W
0Y
1Z
1[
0c
0e
1h
1g
0a
0'!
0(!
18
17
06
14
03
0Z
0X
1^
1V
0\
0f
0+!
0,!
09
07
05
13
12
0W
0h
0g
04
0^
0V
02
03
#215000
1(
0%
0$
0'
1L
0K
0I
0H
0{
0w
0o
1k
0m
0n
1q
1r
1y
1z
1}
1~
1d
1c
1a
0`
1#!
1$!
0}
0u
0q
0r
1Y
1Z
1\
0]
0a
0b
0d
1e
1u
1'!
1(!
0:
19
17
16
0\
0[
0Y
1X
1f
1b
1+!
1,!
09
08
06
15
1W
1[
1h
1g
18
14
1^
1V
12
13
#220000
1$
1"
00
1/
1H
1F
0T
1S
1p
0l
1%!
1{
1}
0'!
0(!
1m
1q
1r
1a
1`
0f
1d
0u
0+!
0,!
1\
1]
0W
1Y
0h
0g
0b
1:
19
16
04
0^
0V
0[
02
08
03
#225000
0$
0"
1!
1&
1#
1J
0H
1G
0F
1E
1)!
0%!
1!!
0{
1s
1u
0}
0#!
0$!
1'!
1(!
1+!
1g
1f
0e
0d
1b
0+!
1-!
0'!
0(!
1V
1W
0X
0Y
1[
0f
1i
0g
1+!
0-!
18
06
05
14
13
0W
1_
0V
0i
1g
04
03
1;
0_
1V
0;
13
#230000
1"
0!
0&
10
0(
0L
0J
1F
0E
1T
1l
0)!
1%!
0s
0k
0u
1'!
0+!
1n
0g
1f
0b
0q
0V
1W
0[
0a
08
14
03
0\
09
#235000
1!
1&
1(
1%
1'
1L
1K
1J
1I
1E
1)!
1w
1s
1o
1k
0m
0n
1q
1u
0y
0z
1+!
1g
0c
1b
1a
0`
1}
0q
0r
1V
0Z
1[
1\
0]
0a
1d
0u
0v
0:
19
18
07
13
0\
1Y
0b
1y
09
16
0[
1c
08
1Z
17
#240000
0(
0'
0"
00
0/
0.
1-
0L
0K
0F
0T
0S
0R
1Q
1x
0t
0p
0l
0%!
0o
0k
0'!
1u
0y
0c
1b
0f
0Z
1[
0W
18
07
04
#245000
1(
1'
0&
0%
1L
1K
0J
0I
0w
0s
1o
1k
1m
1q
0u
1y
1z
1c
0b
1a
1`
0}
1Z
0[
1\
1]
0d
1:
19
08
17
0Y
06
#250000
1&
1%
1"
10
0!
1$
0#
1J
1I
1H
0G
1F
0E
1T
1l
0)!
1%!
0!!
1{
1w
1s
1u
0y
0z
1}
1#!
1$!
1'!
0+!
0m
0`
0g
1f
1e
1d
0c
1b
0'!
0}
0~
0]
0V
1W
1X
1Y
0Z
1[
0d
0f
0#!
0$!
0:
18
07
16
15
14
03
0Y
0W
0e
1'!
06
04
0X
1f
05
1W
14
#255000
0%
1#
0'
0K
0I
1G
1!!
0w
0o
0q
1y
1z
1#!
1e
1c
0a
1}
1~
1X
1Z
0\
1d
0#!
09
17
15
1Y
0e
16
0X
05
#260000
1'
0"
00
1!
0(
1/
0L
1K
0F
1E
0T
1S
1p
0l
1)!
0%!
1o
0k
0'!
1+!
1g
0f
1V
0W
04
13
#265000
1(
0&
1L
0J
0s
1k
1m
0u
0b
1`
0[
1]
1:
08
#270000
0'
10
0K
1T
1l
0o
1q
1r
0m
0`
1a
1u
1v
0]
1\
1b
0y
0:
19
1[
0c
18
0Z
07
#275000
1'
0(
1&
1"
0!
0L
1K
1J
1F
0E
0)!
1%!
1s
1o
0k
1m
1n
0q
0r
0u
0v
1'!
0+!
0g
1f
0b
0a
1`
1y
1u
1q
1r
0V
1W
0[
0\
1]
1a
1b
1c
0u
1:
09
08
14
03
1\
1[
1Z
0b
19
18
17
0[
08
#280000
0'
0"
1!
00
0/
1%
0#
0$
1.
0K
1I
0H
0G
0F
1E
0T
0S
1R
1t
0p
0l
1)!
0%!
0!!
0{
1w
0o
0y
0z
0}
1#!
1$!
0'!
1+!
0m
0n
1u
1v
1b
0`
1g
0f
1e
0d
0c
1y
1z
0q
0r
1'!
1(!
1}
1[
0]
1V
0W
1X
0Y
0Z
1d
1f
0a
1c
0+!
1-!
0u
0v
0}
0:
18
07
06
15
04
13
1Y
1W
0\
1Z
0d
0b
1i
0g
0y
0z
09
17
16
14
0Y
0[
1_
0V
0c
1}
08
06
03
1;
0Z
1d
07
1Y
16
#285000
1"
0%
1$
1(
0&
1L
0J
0I
1H
1F
1%!
1{
0w
0s
1k
1m
1u
1v
1y
1z
0}
0~
0'!
0(!
0f
0d
1c
1b
1`
1+!
0-!
0#!
0$!
1}
1~
0y
0W
0Y
1Z
1[
1]
0c
1d
0e
0i
1g
1#!
1$!
1'!
1:
18
17
06
04
0Z
1Y
0X
0_
1V
1f
1e
0'!
07
16
05
13
0;
1W
1X
0f
15
14
0W
04
#290000
1%
0$
0(
1&
1'
0!
10
0L
1K
1J
1I
0H
0E
1T
1l
0)!
0{
1w
1s
1o
0k
1q
0u
0v
1y
0}
0+!
1n
0g
0d
1c
0b
1a
0q
0y
0z
0V
0Y
1Z
0[
1\
0c
0a
1}
19
08
17
06
03
0Z
0\
1d
09
07
1Y
16
#295000
0%
1$
0&
1#
0J
0I
1H
1G
1!!
1{
0w
0s
1u
1v
1y
1z
0}
0~
0#!
0$!
0e
0d
1c
1b
1'!
1#!
1}
1~
0y
0X
0Y
1Z
1[
0c
1d
1e
1f
0#!
18
17
06
05
0Z
1Y
1X
1W
0e
07
16
15
14
0X
05
#300000
1%
0$
1(
1!
00
0"
1/
1L
1I
0H
0F
1E
0T
1S
1p
0l
1)!
0%!
0{
1w
1k
1y
0}
0'!
1+!
0n
1q
1r
1a
1g
0f
0d
1c
0u
0q
0r
1\
1V
0W
0Y
1Z
0a
0b
1u
19
17
06
04
13
0\
0[
1b
09
08
1[
18
#305000
0%
1$
1"
0#
0'
0K
0I
1H
0G
1F
1%!
0!!
1{
0w
0o
1q
1r
0y
1}
1#!
1$!
1'!
1f
1e
1d
0c
1a
0'!
0u
1W
1X
1Y
0Z
1\
0b
0f
19
07
16
15
14
0[
0W
08
04
#310000
1%
0"
1#
0(
10
0L
1I
1G
0F
1T
1l
0%!
1!!
1w
0k
1y
0#!
0$!
1'!
1(!
1n
1f
0e
1c
0q
0+!
1-!
0'!
0(!
1W
0X
1Z
0f
1i
0g
0a
1+!
0-!
17
05
14
0W
1_
0V
0\
0i
1g
09
04
03
1;
0_
1V
0;
13
#315000
0#
1'
0!
1&
1K
1J
0G
0E
0)!
0!!
1s
1o
1q
1u
1#!
1$!
0+!
0g
1e
1b
1a
1'!
1(!
0V
1X
1[
1\
1f
1+!
1,!
19
18
15
03
1W
1h
1g
14
1^
1V
12
13
#320000
1#
1!
0%
1"
1(
00
0$
0/
0.
0-
0,
1+
1L
0I
0H
1G
1F
1E
0T
0S
0R
0Q
0P
1O
1"!
0|
0x
0t
0p
0l
1)!
1%!
1!!
0{
0w
1k
0'!
0(!
0+!
0,!
1-!
0n
0q
0r
0u
0v
0b
0a
1i
0h
0g
0f
0y
0z
1u
1q
1+!
0-!
0[
0\
1_
0^
0V
0W
0i
1g
1a
1b
0c
0}
0~
09
08
04
03
1;
02
0_
1V
1\
1[
0Z
0d
0#!
0$!
0;
19
18
07
13
0Y
0e
1'!
06
0X
1f
05
1W
14
#325000
0#
0!
1%
0(
0'
0&
0L
0K
0J
1I
0G
0E
0)!
0!!
1w
0s
0o
0k
0m
0q
0u
1y
1#!
1$!
0+!
0g
1e
1c
0b
0a
0`
0'!
0V
1X
1Z
0[
0\
0]
0f
0:
09
08
17
15
03
0W
04
#330000
1(
0"
10
1$
1L
1H
0F
1T
1l
0%!
1{
1k
1}
1'!
1(!
1f
1d
1+!
1,!
1W
1Y
1h
1g
16
14
1^
1V
12
13
#335000
0(
0$
1#
1'
0L
1K
0H
1G
1!!
0{
1o
0k
1m
1n
1q
0}
0#!
0$!
0e
0d
1a
1`
0'!
0(!
0q
0X
0Y
1\
1]
0a
0f
0+!
0,!
1:
19
06
05
0\
0W
0h
0g
09
04
0^
0V
02
03
#340000
0'
1"
00
1/
0K
1F
0T
1S
1p
0l
1%!
0o
1'!
0m
0n
1r
0`
1f
1u
1v
1q
0]
1W
1a
1b
0y
0:
14
1\
1[
0c
19
18
0Z
07
#345000
1'
1$
0#
0%
1K
0I
1H
0G
0!!
1{
0w
1o
0q
0r
1y
1z
1}
1#!
1$!
1e
1d
1c
0a
0'!
0}
0u
0v
1X
1Y
1Z
0\
0b
0d
0f
0y
0z
09
17
16
15
0[
0Y
0W
0c
1}
08
06
04
0Z
1d
07
1Y
16
#350000
0'
0$
0"
10
0K
0H
0F
1T
1l
0%!
0{
0o
1q
1r
0}
1'!
1(!
1m
1n
1`
1f
0d
1a
0q
1+!
1,!
1u
1v
1]
1W
0Y
1\
1b
1h
1g
0a
1y
1z
1:
19
06
14
1[
1^
1V
0\
1c
1}
1~
09
18
13
12
1Z
1d
0#!
17
1Y
0e
16
0X
05
#355000
1$
1"
1#
1(
1L
1H
1G
1F
1%!
1!!
1{
1k
0m
0n
0}
0~
1#!
0'!
0(!
0f
1e
0d
0`
0+!
0,!
0#!
0$!
1q
0W
1X
0Y
0]
1a
0e
0h
0g
1'!
0:
06
15
04
1\
0X
0^
0V
1f
19
05
03
02
1W
14
#360000
0#
00
1%
0/
1.
1I
0G
0T
0S
1R
1t
0p
0l
0!!
1w
0y
0z
1#!
1$!
1m
0q
0r
0u
0b
0a
1`
1e
0c
1u
0'!
1}
0[
0\
1]
1X
0Z
1d
0f
1b
1:
09
08
07
15
1Y
0W
1[
18
16
04
#365000
1#
0$
1!
1&
1J
0H
1G
1E
1)!
1!!
0{
1s
0u
0v
0}
0#!
0$!
1+!
1g
0e
0d
0b
1'!
1y
1V
0X
0Y
0[
1c
1f
08
06
05
13
1Z
1W
17
14
#370000
0#
1$
10
0"
1H
0G
0F
1T
1l
0%!
0!!
1{
1}
1#!
1$!
0'!
0m
0`
0f
1e
1d
1'!
1(!
0]
0W
1X
1Y
1f
0+!
1-!
0:
16
15
04
1W
1i
0g
14
1_
0V
1;
03
#375000
0!
0&
0(
0L
0J
0E
0)!
0s
0k
1m
1n
1u
1v
1+!
1,!
0-!
0i
1h
1g
1b
1`
0y
1q
1r
0_
1^
1V
1[
1]
1a
0c
0u
0;
12
1:
18
13
1\
0Z
0b
19
07
0[
08
#380000
1!
1(
1#
00
0%
1/
1L
0I
1G
1E
0T
1S
1p
0l
1)!
1!!
0w
1k
1y
1z
0#!
0$!
0+!
0,!
1-!
0n
0q
0a
1i
0h
0g
0e
1c
1q
0'!
0(!
0}
0\
1_
0^
0V
0X
1Z
0d
0f
1a
1+!
0-!
09
17
05
03
1;
02
0Y
0W
1\
0i
1g
19
06
04
0_
1V
0;
13
#385000
0!
0(
0$
1'
0L
1K
0H
0E
0)!
0{
1o
0k
0m
0q
0r
1}
1~
0+!
0g
1d
0a
0`
1#!
1$!
1u
0V
1Y
0\
0]
1b
1e
1'!
1(!
0:
09
16
03
1[
1X
1f
1+!
1,!
18
15
1W
1h
1g
14
1^
1V
12
13
#390000
1!
1(
1$
0#
10
1&
1"
1L
1J
1H
0G
1F
1E
1T
1l
1)!
1%!
0!!
1{
1s
1k
0u
0v
0}
0~
0#!
0'!
0(!
0+!
0,!
1-!
1i
0h
0g
0f
0e
0d
0b
1+!
0-!
1#!
0y
0z
1_
0^
0V
0W
0X
0Y
0[
0c
1e
0i
1g
1}
1;
02
08
06
05
04
03
0Z
1X
0_
1V
1d
07
15
13
0;
1Y
16
#395000
0(
1#
0&
0L
0J
1G
1!!
0s
0k
1m
1n
1u
1v
0#!
0$!
0e
1b
1`
1'!
1y
1z
1q
1r
0X
1[
1]
1a
1c
1f
0u
0}
1:
18
05
1\
1Z
1W
0d
0b
19
17
14
0Y
0[
08
06
#400000
1(
0#
0!
0$
00
0'
1%
0/
0.
1-
1L
0K
1I
0H
0G
0E
0T
0S
0R
1Q
1x
0t
0p
0l
0)!
0!!
0{
1w
0o
1k
1}
1~
1#!
1$!
0+!
0n
1u
1b
0g
1e
1d
0q
0r
0'!
0#!
1[
0V
1X
1Y
0e
0f
0a
0u
0v
18
16
15
03
0X
0W
0\
0b
0y
0z
09
05
04
0[
0c
0}
0~
08
0Z
0d
1#!
07
0Y
1e
06
1X
15
#405000
0(
1#
1'
0%
1&
0L
1K
1J
0I
1G
1!!
0w
1s
1o
0k
0m
1q
1u
1y
1z
0#!
0$!
0e
1c
1b
1a
0`
1'!
1}
1~
0X
1Z
1[
1\
0]
1d
1f
1#!
1$!
0:
19
18
17
05
1Y
1W
1e
0'!
16
14
1X
0f
15
0W
04
#410000
0#
0'
1%
10
0K
1I
0G
1T
1l
0!!
1w
0o
0q
0y
0z
0#!
1m
1n
1`
0e
0c
0a
1q
1r
0}
0~
1]
0X
0Z
0\
0d
1a
1#!
0u
1:
09
07
05
0Y
1\
0b
1e
19
06
0[
1X
08
15
