Datapath/Cont8Bits/simulation/qsim/Cont8Bits.msim.vcd
$comment
	File created using the following command:
		vcd file Cont8Bits.msim.vcd -direction
$end
$date
	Fri May 17 08:07:24 2024
$end
$version
	ModelSim Version 10.5b
$end
$timescale
	1ps
$end

$scope module cont8bits_vhd_vec_tst $end
$var wire 1 ! A [7] $end
$var wire 1 " A [6] $end
$var wire 1 # A [5] $end
$var wire 1 $ A [4] $end
$var wire 1 % A [3] $end
$var wire 1 & A [2] $end
$var wire 1 ' A [1] $end
$var wire 1 ( A [0] $end
$var wire 1 ) Z [7] $end
$var wire 1 * Z [6] $end
$var wire 1 + Z [5] $end
$var wire 1 , Z [4] $end
$var wire 1 - Z [3] $end
$var wire 1 . Z [2] $end
$var wire 1 / Z [1] $end
$var wire 1 0 Z [0] $end

$scope module i1 $end
$var wire 1 1 gnd $end
$var wire 1 2 vcc $end
$var wire 1 3 unknown $end
$var wire 1 4 devoe $end
$var wire 1 5 devclrn $end
$var wire 1 6 devpor $end
$var wire 1 7 ww_devoe $end
$var wire 1 8 ww_devclrn $end
$var wire 1 9 ww_devpor $end
$var wire 1 : ww_A [7] $end
$var wire 1 ; ww_A [6] $end
$var wire 1 < ww_A [5] $end
$var wire 1 = ww_A [4] $end
$var wire 1 > ww_A [3] $end
$var wire 1 ? ww_A [2] $end
$var wire 1 @ ww_A [1] $end
$var wire 1 A ww_A [0] $end
$var wire 1 B ww_Z [7] $end
$var wire 1 C ww_Z [6] $end
$var wire 1 D ww_Z [5] $end
$var wire 1 E ww_Z [4] $end
$var wire 1 F ww_Z [3] $end
$var wire 1 G ww_Z [2] $end
$var wire 1 H ww_Z [1] $end
$var wire 1 I ww_Z [0] $end
$var wire 1 J \Z[0]~output_o\ $end
$var wire 1 K \Z[1]~output_o\ $end
$var wire 1 L \Z[2]~output_o\ $end
$var wire 1 M \Z[3]~output_o\ $end
$var wire 1 N \Z[4]~output_o\ $end
$var wire 1 O \Z[5]~output_o\ $end
$var wire 1 P \Z[6]~output_o\ $end
$var wire 1 Q \Z[7]~output_o\ $end
$var wire 1 R \A[0]~input_o\ $end
$var wire 1 S \A[1]~input_o\ $end
$var wire 1 T \I1|Sum~combout\ $end
$var wire 1 U \A[2]~input_o\ $end
$var wire 1 V \I2|Sum~combout\ $end
$var wire 1 W \A[3]~input_o\ $end
$var wire 1 X \I3|Sum~combout\ $end
$var wire 1 Y \A[4]~input_o\ $end
$var wire 1 Z \I3|Cout~combout\ $end
$var wire 1 [ \I4|Sum~combout\ $end
$var wire 1 \ \A[5]~input_o\ $end
$var wire 1 ] \I5|Sum~combout\ $end
$var wire 1 ^ \A[6]~input_o\ $end
$var wire 1 _ \I6|Sum~combout\ $end
$var wire 1 ` \A[7]~input_o\ $end
$var wire 1 a \I6|Cout~combout\ $end
$var wire 1 b \I7|Sum~combout\ $end
$var wire 1 c \ALT_INV_A[0]~input_o\ $end
$upscope $end
$upscope $end
$enddefinitions $end
#0
$dumpvars
01
12
x3
14
15
16
17
18
19
1J
0K
0L
0M
0N
0O
0P
0Q
0R
0S
0T
0U
0V
0W
0X
0Y
0Z
0[
0\
0]
0^
0_
0`
0a
0b
1c
0!
0"
0#
0$
0%
0&
0'
0(
0:
0;
0<
0=
0>
0?
0@
0A
0B
0C
0D
0E
0F
0G
0H
1I
0)
0*
0+
0,
0-
0.
0/
10
$end
#10000
1(
1A
1R
0c
1T
0J
1K
0I
1H
00
1/
#20000
0(
1'
0A
1@
1S
0R
1c
1J
1I
10
#30000
1(
1A
1R
0c
0T
1V
0J
1L
0K
0I
1G
0H
00
0/
1.
#40000
0(
0'
1&
0A
0@
1?
1U
0S
0R
1c
1J
1I
10
#50000
1(
1A
1R
0c
1T
0J
1K
0I
1H
00
1/
#60000
0(
1'
0A
1@
1S
0R
1c
1J
1I
10
#70000
1(
1A
1R
0c
0T
0V
1X
0J
1M
0L
0K
0I
1F
0G
0H
00
0/
0.
1-
#80000
0(
0'
0&
1%
0A
0@
0?
1>
1W
0U
0S
0R
1c
1J
1I
10
#90000
1(
1A
1R
0c
1T
0J
1K
0I
1H
00
1/
#100000
0(
1'
0A
1@
1S
0R
1c
1J
1I
10
#110000
1(
1A
1R
0c
0T
1V
0J
1L
0K
0I
1G
0H
00
0/
1.
#120000
0(
0'
1&
0A
0@
1?
1U
0S
0R
1c
1J
1I
10
#130000
1(
1A
1R
0c
1T
0J
1K
0I
1H
00
1/
#140000
0(
1'
0A
1@
1S
0R
1c
1J
1I
10
#150000
1(
1A
1R
0c
0T
0V
0X
1Z
0J
0M
0L
0K
1[
0I
0F
0G
0H
00
1N
0/
0.
0-
1E
1,
#160000
0(
0'
0&
0%
1$
0A
0@
0?
0>
1=
1Y
0W
0U
0S
0R
1c
0Z
0[
1]
1J
1O
0N
1[
0]
1I
1D
0E
10
0O
1N
0,
1+
0D
1E
1,
0+
#170000
1(
1A
1R
0c
1T
0J
1K
0I
1H
00
1/
#180000
0(
1'
0A
1@
1S
0R
1c
1J
1I
10
#190000
1(
1A
1R
0c
0T
1V
0J
1L
0K
0I
1G
0H
00
0/
1.
#200000
0(
0'
1&
0A
0@
1?
1U
0S
0R
1c
1J
1I
10
#210000
1(
1A
1R
0c
1T
0J
1K
0I
1H
00
1/
#220000
0(
1'
0A
1@
1S
0R
1c
1J
1I
10
#230000
1(
1A
1R
0c
0T
0V
1X
0J
1M
0L
0K
0I
1F
0G
0H
00
0/
0.
1-
#240000
0(
0'
0&
1%
0A
0@
0?
1>
1W
0U
0S
0R
1c
1J
1I
10
#250000
1(
1A
1R
0c
1T
0J
1K
0I
1H
00
1/
#260000
0(
1'
0A
1@
1S
0R
1c
1J
1I
10
#270000
1(
1A
1R
0c
0T
1V
0J
1L
0K
0I
1G
0H
00
0/
1.
#280000
0(
0'
1&
0A
0@
1?
1U
0S
0R
1c
1J
1I
10
#290000
1(
1A
1R
0c
1T
0J
1K
0I
1H
00
1/
#300000
0(
1'
0A
1@
1S
0R
1c
1J
1I
10
#310000
1(
1A
1R
0c
0T
0V
0X
1Z
0J
0M
0L
0K
0[
1]
0I
0F
0G
0H
00
1O
0N
0/
0.
0-
1D
0E
0,
1+
#320000
0(
0'
0&
0%
0$
1#
0A
0@
0?
0>
0=
1<
1\
0Y
0W
0U
0S
0R
1c
0Z
1[
1J
1N
0[
1I
1E
10
0N
1,
0E
0,
#330000
1(
1A
1R
0c
1T
0J
1K
0I
1H
00
1/
#340000
0(
1'
0A
1@
1S
0R
1c
1J
1I
10
#350000
1(
1A
1R
0c
0T
1V
0J
1L
0K
0I
1G
0H
00
0/
1.
#360000
0(
0'
1&
0A
0@
1?
1U
0S
0R
1c
1J
1I
10
#370000
1(
1A
1R
0c
1T
0J
1K
0I
1H
00
1/
#380000
0(
1'
0A
1@
1S
0R
1c
1J
1I
10
#390000
1(
1A
1R
0c
0T
0V
1X
0J
1M
0L
0K
0I
1F
0G
0H
00
0/
0.
1-
#400000
0(
0'
0&
1%
0A
0@
0?
1>
1W
0U
0S
0R
1c
1J
1I
10
#410000
1(
1A
1R
0c
1T
0J
1K
0I
1H
00
1/
#420000
0(
1'
0A
1@
1S
0R
1c
1J
1I
10
#430000
1(
1A
1R
0c
0T
1V
0J
1L
0K
0I
1G
0H
00
0/
1.
#440000
0(
0'
1&
0A
0@
1?
1U
0S
0R
1c
1J
1I
10
#450000
1(
1A
1R
0c
1T
0J
1K
0I
1H
00
1/
#460000
0(
1'
0A
1@
1S
0R
1c
1J
1I
10
#470000
1(
1A
1R
0c
0T
0V
0X
1Z
0J
0M
0L
0K
1[
0I
0F
0G
0H
00
1N
0/
0.
0-
1E
1,
#480000
0(
0'
0&
0%
1$
0A
0@
0?
0>
1=
1Y
0W
0U
0S
0R
1c
0Z
0[
0]
1_
1J
1P
0O
0N
1[
1]
0_
1I
1C
0D
0E
10
0P
1O
1N
0,
0+
1*
0C
1D
1E
1,
1+
0*
#490000
1(
1A
1R
0c
1T
0J
1K
0I
1H
00
1/
#500000
0(
1'
0A
1@
1S
0R
1c
1J
1I
10
#510000
1(
1A
1R
0c
0T
1V
0J
1L
0K
0I
1G
0H
00
0/
1.
#520000
0(
0'
1&
0A
0@
1?
1U
0S
0R
1c
1J
1I
10
#530000
1(
1A
1R
0c
1T
0J
1K
0I
1H
00
1/
#540000
0(
1'
0A
1@
1S
0R
1c
1J
1I
10
#550000
1(
1A
1R
0c
0T
0V
1X
0J
1M
0L
0K
0I
1F
0G
0H
00
0/
0.
1-
#560000
0(
0'
0&
1%
0A
0@
0?
1>
1W
0U
0S
0R
1c
1J
1I
10
#570000
1(
1A
1R
0c
1T
0J
1K
0I
1H
00
1/
#580000
0(
1'
0A
1@
1S
0R
1c
1J
1I
10
#590000
1(
1A
1R
0c
0T
1V
0J
1L
0K
0I
1G
0H
00
0/
1.
#600000
0(
0'
1&
0A
0@
1?
1U
0S
0R
1c
1J
1I
10
#610000
1(
1A
1R
0c
1T
0J
1K
0I
1H
00
1/
#620000
0(
1'
0A
1@
1S
0R
1c
1J
1I
10
#630000
1(
1A
1R
0c
0T
0V
0X
1Z
0J
0M
0L
0K
0[
0]
1_
0I
0F
0G
0H
00
1P
0O
0N
0/
0.
0-
1C
0D
0E
0,
0+
1*
#640000
0(
0'
0&
0%
0$
0#
1"
0A
0@
0?
0>
0=
0<
1;
1^
0\
0Y
0W
0U
0S
0R
1c
0Z
1[
1J
1N
0[
1I
1E
10
0N
1,
0E
0,
#650000
1(
1A
1R
0c
1T
0J
1K
0I
1H
00
1/
#660000
0(
1'
0A
1@
1S
0R
1c
1J
1I
10
#670000
1(
1A
1R
0c
0T
1V
0J
1L
0K
0I
1G
0H
00
0/
1.
#680000
0(
0'
1&
0A
0@
1?
1U
0S
0R
1c
1J
1I
10
#690000
1(
1A
1R
0c
1T
0J
1K
0I
1H
00
1/
#700000
0(
1'
0A
1@
1S
0R
1c
1J
1I
10
#710000
1(
1A
1R
0c
0T
0V
1X
0J
1M
0L
0K
0I
1F
0G
0H
00
0/
0.
1-
#720000
0(
0'
0&
1%
0A
0@
0?
1>
1W
0U
0S
0R
1c
1J
1I
10
#730000
1(
1A
1R
0c
1T
0J
1K
0I
1H
00
1/
#740000
0(
1'
0A
1@
1S
0R
1c
1J
1I
10
#750000
1(
1A
1R
0c
0T
1V
0J
1L
0K
0I
1G
0H
00
0/
1.
#760000
0(
0'
1&
0A
0@
1?
1U
0S
0R
1c
1J
1I
10
#770000
1(
1A
1R
0c
1T
0J
1K
0I
1H
00
1/
#780000
0(
1'
0A
1@
1S
0R
1c
1J
1I
10
#790000
1(
1A
1R
0c
0T
0V
0X
1Z
0J
0M
0L
0K
1[
0I
0F
0G
0H
00
1N
0/
0.
0-
1E
1,
#800000
0(
0'
0&
0%
1$
0A
0@
0?
0>
1=
1Y
0W
0U
0S
0R
1c
0Z
0[
1]
1J
1O
0N
1[
0]
1I
1D
0E
10
0O
1N
0,
1+
0D
1E
1,
0+
#810000
1(
1A
1R
0c
1T
0J
1K
0I
1H
00
1/
#820000
0(
1'
0A
1@
1S
0R
1c
1J
1I
10
#830000
1(
1A
1R
0c
0T
1V
0J
1L
0K
0I
1G
0H
00
0/
1.
#840000
0(
0'
1&
0A
0@
1?
1U
0S
0R
1c
1J
1I
10
#850000
1(
1A
1R
0c
1T
0J
1K
0I
1H
00
1/
#860000
0(
1'
0A
1@
1S
0R
1c
1J
1I
10
#870000
1(
1A
1R
0c
0T
0V
1X
0J
1M
0L
0K
0I
1F
0G
0H
00
0/
0.
1-
#880000
0(
0'
0&
1%
0A
0@
0?
1>
1W
0U
0S
0R
1c
1J
1I
10
#890000
1(
1A
1R
0c
1T
0J
1K
0I
1H
00
1/
#900000
0(
1'
0A
1@
1S
0R
1c
1J
1I
10
#910000
1(
1A
1R
0c
0T
1V
0J
1L
0K
0I
1G
0H
00
0/
1.
#920000
0(
0'
1&
0A
0@
1?
1U
0S
0R
1c
1J
1I
10
#930000
1(
1A
1R
0c
1T
0J
1K
0I
1H
00
1/
#940000
0(
1'
0A
1@
1S
0R
1c
1J
1I
10
#950000
1(
1A
1R
0c
0T
0V
0X
1Z
0J
0M
0L
0K
0[
1]
0I
0F
0G
0H
00
1O
0N
0/
0.
0-
1D
0E
0,
1+
#960000
0(
0'
0&
0%
0$
1#
0A
0@
0?
0>
0=
1<
1\
0Y
0W
0U
0S
0R
1c
0Z
1[
1J
1N
0[
1I
1E
10
0N
1,
0E
0,
#970000
1(
1A
1R
0c
1T
0J
1K
0I
1H
00
1/
#980000
0(
1'
0A
1@
1S
0R
1c
1J
1I
10
#990000
1(
1A
1R
0c
0T
1V
0J
1L
0K
0I
1G
0H
00
0/
1.
#1000000
0(
0'
1&
0A
0@
1?
1U
0S
0R
1c
1J
1I
10
#1010000
1(
1A
1R
0c
1T
0J
1K
0I
1H
00
1/
#1020000
0(
1'
0A
1@
1S
0R
1c
1J
1I
10
#1030000
1(
1A
1R
0c
0T
0V
1X
0J
1M
0L
0K
0I
1F
0G
0H
00
0/
0.
1-
#1040000
0(
0'
0&
1%
0A
0@
0?
1>
1W
0U
0S
0R
1c
1J
1I
10
#1050000
1(
1A
1R
0c
1T
0J
1K
0I
1H
00
1/
#1060000
0(
1'
0A
1@
1S
0R
1c
1J
1I
10
#1070000
1(
1A
1R
0c
0T
1V
0J
1L
0K
0I
1G
0H
00
0/
1.
#1080000
0(
0'
1&
0A
0@
1?
1U
0S
0R
1c
1J
1I
10
#1090000
1(
1A
1R
0c
1T
0J
1K
0I
1H
00
1/
#1100000
0(
1'
0A
1@
1S
0R
1c
1J
1I
10
#1110000
1(
1A
1R
0c
0T
0V
0X
1Z
0J
0M
0L
0K
1[
0I
0F
0G
0H
00
1N
0/
0.
0-
1E
1,
#1120000
0(
0'
0&
0%
1$
0A
0@
0?
0>
1=
1Y
0W
0U
0S
0R
1c
0Z
0[
0]
0_
1a
1J
0P
0O
0N
1b
1[
1]
1_
0a
1I
0C
0D
0E
10
1P
1O
1N
1Q
0b
0,
0+
0*
1C
1D
1E
1B
0Q
1,
1+
1*
1)
0B
0)
#1130000
1(
1A
1R
0c
1T
0J
1K
0I
1H
00
1/
#1140000
0(
1'
0A
1@
1S
0R
1c
1J
1I
10
#1150000
1(
1A
1R
0c
0T
1V
0J
1L
0K
0I
1G
0H
00
0/
1.
#1160000
0(
0'
1&
0A
0@
1?
1U
0S
0R
1c
1J
1I
10
#1170000
1(
1A
1R
0c
1T
0J
1K
0I
1H
00
1/
#1180000
0(
1'
0A
1@
1S
0R
1c
1J
1I
10
#1190000
1(
1A
1R
0c
0T
0V
1X
0J
1M
0L
0K
0I
1F
0G
0H
00
0/
0.
1-
#1200000
0(
0'
0&
1%
0A
0@
0?
1>
1W
0U
0S
0R
1c
1J
1I
10
#1210000
1(
1A
1R
0c
1T
0J
1K
0I
1H
00
1/
#1220000
0(
1'
0A
1@
1S
0R
1c
1J
1I
10
#1230000
1(
1A
1R
0c
0T
1V
0J
1L
0K
0I
1G
0H
00
0/
1.
#1240000
0(
0'
1&
0A
0@
1?
1U
0S
0R
1c
1J
1I
10
#1250000
1(
1A
1R
0c
1T
0J
1K
0I
1H
00
1/
#1260000
0(
1'
0A
1@
1S
0R
1c
1J
1I
10
#1270000
1(
1A
1R
0c
0T
0V
0X
1Z
0J
0M
0L
0K
0[
0]
0_
1a
0I
0F
0G
0H
00
0P
0O
0N
1b
0/
0.
0-
0C
0D
0E
1Q
0,
0+
0*
1B
1)
#1280000
0(
0'
0&
0%
0$
0#
0"
1!
0A
0@
0?
0>
0=
0<
0;
1:
1`
0^
0\
0Y
0W
0U
0S
0R
1c
0Z
1[
0a
0b
1J
0Q
1N
1b
0[
1I
0B
1E
10
0N
1Q
1,
0)
0E
1B
0,
1)
#1290000
1(
1A
1R
0c
1T
0J
1K
0I
1H
00
1/
#1300000
0(
1'
0A
1@
1S
0R
1c
1J
1I
10
#1310000
1(
1A
1R
0c
0T
1V
0J
1L
0K
0I
1G
0H
00
0/
1.
#1320000
0(
0'
1&
0A
0@
1?
1U
0S
0R
1c
1J
1I
10
#1330000
1(
1A
1R
0c
1T
0J
1K
0I
1H
00
1/
#1340000
0(
1'
0A
1@
1S
0R
1c
1J
1I
10
#1350000
1(
1A
1R
0c
0T
0V
1X
0J
1M
0L
0K
0I
1F
0G
0H
00
0/
0.
1-
#1360000
0(
0'
0&
1%
0A
0@
0?
1>
1W
0U
0S
0R
1c
1J
1I
10
#1370000
1(
1A
1R
0c
1T
0J
1K
0I
1H
00
1/
#1380000
0(
1'
0A
1@
1S
0R
1c
1J
1I
10
#1390000
1(
1A
1R
0c
0T
1V
0J
1L
0K
0I
1G
0H
00
0/
1.
#1400000
0(
0'
1&
0A
0@
1?
1U
0S
0R
1c
1J
1I
10
#1410000
1(
1A
1R
0c
1T
0J
1K
0I
1H
00
1/
#1420000
0(
1'
0A
1@
1S
0R
1c
1J
1I
10
#1430000
1(
1A
1R
0c
0T
0V
0X
1Z
0J
0M
0L
0K
1[
0I
0F
0G
0H
00
1N
0/
0.
0-
1E
1,
#1440000
0(
0'
0&
0%
1$
0A
0@
0?
0>
1=
1Y
0W
0U
0S
0R
1c
0Z
0[
1]
1J
1O
0N
1[
0]
1I
1D
0E
10
0O
1N
0,
1+
0D
1E
1,
0+
#1450000
1(
1A
1R
0c
1T
0J
1K
0I
1H
00
1/
#1460000
0(
1'
0A
1@
1S
0R
1c
1J
1I
10
#1470000
1(
1A
1R
0c
0T
1V
0J
1L
0K
0I
1G
0H
00
0/
1.
#1480000
0(
0'
1&
0A
0@
1?
1U
0S
0R
1c
1J
1I
10
#1490000
1(
1A
1R
0c
1T
0J
1K
0I
1H
00
1/
#1500000
0(
1'
0A
1@
1S
0R
1c
1J
1I
10
#1510000
1(
1A
1R
0c
0T
0V
1X
0J
1M
0L
0K
0I
1F
0G
0H
00
0/
0.
1-
#1520000
0(
0'
0&
1%
0A
0@
0?
1>
1W
0U
0S
0R
1c
1J
1I
10
#1530000
1(
1A
1R
0c
1T
0J
1K
0I
1H
00
1/
#1540000
0(
1'
0A
1@
1S
0R
1c
1J
1I
10
#1550000
1(
1A
1R
0c
0T
1V
0J
1L
0K
0I
1G
0H
00
0/
1.
#1560000
0(
0'
1&
0A
0@
1?
1U
0S
0R
1c
1J
1I
10
#1570000
1(
1A
1R
0c
1T
0J
1K
0I
1H
00
1/
#1580000
0(
1'
0A
1@
1S
0R
1c
1J
1I
10
#1590000
1(
1A
1R
0c
0T
0V
0X
1Z
0J
0M
0L
0K
0[
1]
0I
0F
0G
0H
00
1O
0N
0/
0.
0-
1D
0E
0,
1+
#1600000
0(
0'
0&
0%
0$
1#
0A
0@
0?
0>
0=
1<
1\
0Y
0W
0U
0S
0R
1c
0Z
1[
1J
1N
0[
1I
1E
10
0N
1,
0E
0,
#1610000
1(
1A
1R
0c
1T
0J
1K
0I
1H
00
1/
#1620000
0(
1'
0A
1@
1S
0R
1c
1J
1I
10
#1630000
1(
1A
1R
0c
0T
1V
0J
1L
0K
0I
1G
0H
00
0/
1.
#1640000
0(
0'
1&
0A
0@
1?
1U
0S
0R
1c
1J
1I
10
#1650000
1(
1A
1R
0c
1T
0J
1K
0I
1H
00
1/
#1660000
0(
1'
0A
1@
1S
0R
1c
1J
1I
10
#1670000
1(
1A
1R
0c
0T
0V
1X
0J
1M
0L
0K
0I
1F
0G
0H
00
0/
0.
1-
#1680000
0(
0'
0&
1%
0A
0@
0?
1>
1W
0U
0S
0R
1c
1J
1I
10
#1690000
1(
1A
1R
0c
1T
0J
1K
0I
1H
00
1/
#1700000
0(
1'
0A
1@
1S
0R
1c
1J
1I
10
#1710000
1(
1A
1R
0c
0T
1V
0J
1L
0K
0I
1G
0H
00
0/
1.
#1720000
0(
0'
1&
0A
0@
1?
1U
0S
0R
1c
1J
1I
10
#1730000
1(
1A
1R
0c
1T
0J
1K
0I
1H
00
1/
#1740000
0(
1'
0A
1@
1S
0R
1c
1J
1I
10
#1750000
1(
1A
1R
0c
0T
0V
0X
1Z
0J
0M
0L
0K
1[
0I
0F
0G
0H
00
1N
0/
0.
0-
1E
1,
#1760000
0(
0'
0&
0%
1$
0A
0@
0?
0>
1=
1Y
0W
0U
0S
0R
1c
0Z
0[
0]
1_
1J
1P
0O
0N
1[
1]
0_
1I
1C
0D
0E
10
0P
1O
1N
0,
0+
1*
0C
1D
1E
1,
1+
0*
#1770000
1(
1A
1R
0c
1T
0J
1K
0I
1H
00
1/
#1780000
0(
1'
0A
1@
1S
0R
1c
1J
1I
10
#1790000
1(
1A
1R
0c
0T
1V
0J
1L
0K
0I
1G
0H
00
0/
1.
#1800000
0(
0'
1&
0A
0@
1?
1U
0S
0R
1c
1J
1I
10
#1810000
1(
1A
1R
0c
1T
0J
1K
0I
1H
00
1/
#1820000
0(
1'
0A
1@
1S
0R
1c
1J
1I
10
#1830000
1(
1A
1R
0c
0T
0V
1X
0J
1M
0L
0K
0I
1F
0G
0H
00
0/
0.
1-
#1840000
0(
0'
0&
1%
0A
0@
0?
1>
1W
0U
0S
0R
1c
1J
1I
10
#1850000
1(
1A
1R
0c
1T
0J
1K
0I
1H
00
1/
#1860000
0(
1'
0A
1@
1S
0R
1c
1J
1I
10
#1870000
1(
1A
1R
0c
0T
1V
0J
1L
0K
0I
1G
0H
00
0/
1.
#1880000
0(
0'
1&
0A
0@
1?
1U
0S
0R
1c
1J
1I
10
#1890000
1(
1A
1R
0c
1T
0J
1K
0I
1H
00
1/
#1900000
0(
1'
0A
1@
1S
0R
1c
1J
1I
10
#1910000
1(
1A
1R
0c
0T
0V
0X
1Z
0J
0M
0L
0K
0[
0]
1_
0I
0F
0G
0H
00
1P
0O
0N
0/
0.
0-
1C
0D
0E
0,
0+
1*
#1920000
0(
0'
0&
0%
0$
0#
1"
0A
0@
0?
0>
0=
0<
1;
1^
0\
0Y
0W
0U
0S
0R
1c
0Z
1[
1J
1N
0[
1I
1E
10
0N
1,
0E
0,
#1930000
1(
1A
1R
0c
1T
0J
1K
0I
1H
00
1/
#1940000
0(
1'
0A
1@
1S
0R
1c
1J
1I
10
#1950000
1(
1A
1R
0c
0T
1V
0J
1L
0K
0I
1G
0H
00
0/
1.
#1960000
0(
0'
1&
0A
0@
1?
1U
0S
0R
1c
1J
1I
10
#1970000
1(
1A
1R
0c
1T
0J
1K
0I
1H
00
1/
#1980000
0(
1'
0A
1@
1S
0R
1c
1J
1I
10
#1990000
1(
1A
1R
0c
0T
0V
1X
0J
1M
0L
0K
0I
1F
0G
0H
00
0/
0.
1-
#2000000
0(
0'
0&
1%
0A
0@
0?
1>
1W
0U
0S
0R
1c
1J
1I
10
#2010000
1(
1A
1R
0c
1T
0J
1K
0I
1H
00
1/
#2020000
0(
1'
0A
1@
1S
0R
1c
1J
1I
10
#2030000
1(
1A
1R
0c
0T
1V
0J
1L
0K
0I
1G
0H
00
0/
1.
#2040000
0(
0'
1&
0A
0@
1?
1U
0S
0R
1c
1J
1I
10
#2050000
1(
1A
1R
0c
1T
0J
1K
0I
1H
00
1/
#2060000
0(
1'
0A
1@
1S
0R
1c
1J
1I
10
#2070000
1(
1A
1R
0c
0T
0V
0X
1Z
0J
0M
0L
0K
1[
0I
0F
0G
0H
00
1N
0/
0.
0-
1E
1,
#2080000
0(
0'
0&
0%
1$
0A
0@
0?
0>
1=
1Y
0W
0U
0S
0R
1c
0Z
0[
1]
1J
1O
0N
1[
0]
1I
1D
0E
10
0O
1N
0,
1+
0D
1E
1,
0+
#2090000
1(
1A
1R
0c
1T
0J
1K
0I
1H
00
1/
#2100000
0(
1'
0A
1@
1S
0R
1c
1J
1I
10
#2110000
1(
1A
1R
0c
0T
1V
0J
1L
0K
0I
1G
0H
00
0/
1.
#2120000
0(
0'
1&
0A
0@
1?
1U
0S
0R
1c
1J
1I
10
#2130000
1(
1A
1R
0c
1T
0J
1K
0I
1H
00
1/
#2140000
0(
1'
0A
1@
1S
0R
1c
1J
1I
10
#2150000
1(
1A
1R
0c
0T
0V
1X
0J
1M
0L
0K
0I
1F
0G
0H
00
0/
0.
1-
#2160000
0(
0'
0&
1%
0A
0@
0?
1>
1W
0U
0S
0R
1c
1J
1I
10
#2170000
1(
1A
1R
0c
1T
0J
1K
0I
1H
00
1/
#2180000
0(
1'
0A
1@
1S
0R
1c
1J
1I
10
#2190000
1(
1A
1R
0c
0T
1V
0J
1L
0K
0I
1G
0H
00
0/
1.
#2200000
0(
0'
1&
0A
0@
1?
1U
0S
0R
1c
1J
1I
10
#2210000
1(
1A
1R
0c
1T
0J
1K
0I
1H
00
1/
#2220000
0(
1'
0A
1@
1S
0R
1c
1J
1I
10
#2230000
1(
1A
1R
0c
0T
0V
0X
1Z
0J
0M
0L
0K
0[
1]
0I
0F
0G
0H
00
1O
0N
0/
0.
0-
1D
0E
0,
1+
#2240000
0(
0'
0&
0%
0$
1#
0A
0@
0?
0>
0=
1<
1\
0Y
0W
0U
0S
0R
1c
0Z
1[
1J
1N
0[
1I
1E
10
0N
1,
0E
0,
#2250000
1(
1A
1R
0c
1T
0J
1K
0I
1H
00
1/
#2260000
0(
1'
0A
1@
1S
0R
1c
1J
1I
10
#2270000
1(
1A
1R
0c
0T
1V
0J
1L
0K
0I
1G
0H
00
0/
1.
#2280000
0(
0'
1&
0A
0@
1?
1U
0S
0R
1c
1J
1I
10
#2290000
1(
1A
1R
0c
1T
0J
1K
0I
1H
00
1/
#2300000
0(
1'
0A
1@
1S
0R
1c
1J
1I
10
#2310000
1(
1A
1R
0c
0T
0V
1X
0J
1M
0L
0K
0I
1F
0G
0H
00
0/
0.
1-
#2320000
0(
0'
0&
1%
0A
0@
0?
1>
1W
0U
0S
0R
1c
1J
1I
10
#2330000
1(
1A
1R
0c
1T
0J
1K
0I
1H
00
1/
#2340000
0(
1'
0A
1@
1S
0R
1c
1J
1I
10
#2350000
1(
1A
1R
0c
0T
1V
0J
1L
0K
0I
1G
0H
00
0/
1.
#2360000
0(
0'
1&
0A
0@
1?
1U
0S
0R
1c
1J
1I
10
#2370000
1(
1A
1R
0c
1T
0J
1K
0I
1H
00
1/
#2380000
0(
1'
0A
1@
1S
0R
1c
1J
1I
10
#2390000
1(
1A
1R
0c
0T
0V
0X
1Z
0J
0M
0L
0K
1[
0I
0F
0G
0H
00
1N
0/
0.
0-
1E
1,
#2400000
0(
0'
0&
0%
1$
0A
0@
0?
0>
1=
1Y
0W
0U
0S
0R
1c
0Z
0[
0]
0_
1a
1J
0P
0O
0N
0b
1[
1]
1_
0a
1I
0C
0D
0E
10
1P
1O
1N
0Q
1b
0,
0+
0*
1C
1D
1E
0B
1Q
1,
1+
1*
0)
1B
1)
#2410000
1(
1A
1R
0c
1T
0J
1K
0I
1H
00
1/
#2420000
0(
1'
0A
1@
1S
0R
1c
1J
1I
10
#2430000
1(
1A
1R
0c
0T
1V
0J
1L
0K
0I
1G
0H
00
0/
1.
#2440000
0(
0'
1&
0A
0@
1?
1U
0S
0R
1c
1J
1I
10
#2450000
1(
1A
1R
0c
1T
0J
1K
0I
1H
00
1/
#2460000
0(
1'
0A
1@
1S
0R
1c
1J
1I
10
#2470000
1(
1A
1R
0c
0T
0V
1X
0J
1M
0L
0K
0I
1F
0G
0H
00
0/
0.
1-
#2480000
0(
0'
0&
1%
0A
0@
0?
1>
1W
0U
0S
0R
1c
1J
1I
10
#2490000
1(
1A
1R
0c
1T
0J
1K
0I
1H
00
1/
#2500000
0(
1'
0A
1@
1S
0R
1c
1J
1I
10
#2510000
1(
1A
1R
0c
0T
1V
0J
1L
0K
0I
1G
0H
00
0/
1.
#2520000
0(
0'
1&
0A
0@
1?
1U
0S
0R
1c
1J
1I
10
#2530000
1(
1A
1R
0c
1T
0J
1K
0I
1H
00
1/
#2540000
0(
1'
0A
1@
1S
0R
1c
1J
1I
10
#2550000
1(
1A
1R
0c
0T
0V
0X
1Z
0J
0M
0L
0K
0[
0]
0_
1a
0I
0F
0G
0H
00
0P
0O
0N
0b
0/
0.
0-
0C
0D
0E
0Q
0,
0+
0*
0B
0)
#2560000
0(
0'
0&
0%
0$
0#
0"
0!
0A
0@
0?
0>
0=
0<
0;
0:
0`
0^
0\
0Y
0W
0U
0S
0R
1c
0Z
1[
0a
1b
1J
1Q
1N
0b
0[
1I
1B
1E
10
0N
0Q
1,
1)
0E
0B
0,
0)
#2570000
1(
1A
1R
0c
1T
0J
1K
0I
1H
00
1/
#2580000
0(
1'
0A
1@
1S
0R
1c
1J
1I
10
#2590000
1(
1A
1R
0c
0T
1V
0J
1L
0K
0I
1G
0H
00
0/
1.
#2600000
0(
0'
1&
0A
0@
1?
1U
0S
0R
1c
1J
1I
10
#2610000
1(
1A
1R
0c
1T
0J
1K
0I
1H
00
1/
#2620000
0(
1'
0A
1@
1S
0R
1c
1J
1I
10
#2630000
1(
1A
1R
0c
0T
0V
1X
0J
1M
0L
0K
0I
1F
0G
0H
00
0/
0.
1-
#2640000
0(
0'
0&
1%
0A
0@
0?
1>
1W
0U
0S
0R
1c
1J
1I
10
#2650000
1(
1A
1R
0c
1T
0J
1K
0I
1H
00
1/
#2660000
0(
1'
0A
1@
1S
0R
1c
1J
1I
10
#2670000
1(
1A
1R
0c
0T
1V
0J
1L
0K
0I
1G
0H
00
0/
1.
#2680000
0(
0'
1&
0A
0@
1?
1U
0S
0R
1c
1J
1I
10
#2690000
1(
1A
1R
0c
1T
0J
1K
0I
1H
00
1/
#2700000
0(
1'
0A
1@
1S
0R
1c
1J
1I
10
#2710000
1(
1A
1R
0c
0T
0V
0X
1Z
0J
0M
0L
0K
1[
0I
0F
0G
0H
00
1N
0/
0.
0-
1E
1,
